A Comprehensive Study on Particulate Matter Pollution - 2 Dataset
…
We can see a lot of columns have a few distinct value, let’s check if they equals 1 or 0, if yes, then we may need to remove these columns since they don’t contribute to our analysis.

Code

# check insignificant data
insignificant_data <- long_data %>% 
                               filter(DistinctCount <= 1)
insignificant_data

# A tibble: 22 × 2
   ColumnName    DistinctCount
   <chr>                 <int>
 1 IndicatorCode             1
 2 Indicator                 1
 3 ValueType                 1
 4 Location type             1
 5 Period type               1
 6 Dim1 type                 1
 7 Dim2 type                 1
 8 Dim2                      1
 9 Dim2ValueCode             1
10 Dim3 type                 1
# ℹ 12 more rows

After double-checking our dataset, we found these data could be removed. We then check the NaN values of the rest of the columns.

Code

# check for NaN
selected_columns <- setdiff(colnames(data), insignificant_data$ColumnName)
selected_data <- data %>% select(all_of(selected_columns))

selected_data

# A tibble: 9,450 × 12
   ParentLocationCode ParentLocation SpatialDimValueCode Location         Period
   <chr>              <chr>          <chr>               <chr>             <dbl>
 1 AFR                Africa         KEN                 Kenya              2019
 2 AMR                Americas       TTO                 Trinidad and To…   2019
 3 EUR                Europe         GBR                 United Kingdom …   2019
 4 AMR                Americas       GRD                 Grenada            2019
 5 AMR                Americas       BRA                 Brazil             2019
 6 EUR                Europe         DNK                 Denmark            2019
 7 EUR                Europe         RUS                 Russian Federat…   2019
 8 EUR                Europe         ESP                 Spain              2019
 9 AMR                Americas       GRD                 Grenada            2019
10 AMR                Americas       GRD                 Grenada            2019
# ℹ 9,440 more rows
# ℹ 7 more variables: IsLatestYear <lgl>, Dim1 <chr>, Dim1ValueCode <chr>,
#   FactValueNumeric <dbl>, FactValueNumericLow <dbl>,
#   FactValueNumericHigh <dbl>, Value <chr>
…
